{
  "manifestVersion": "3.2",
  "admin": {
    "address": "0xF75b84A4890A9e881e0ec8659bb8E58379a2d5d8",
    "txHash": "0xdbf9fe56a626f08b40db0c88519e6f0ebdb2b5eb698a06e7b1c36fbaf4974a13"
  },
  "proxies": [
    {
      "address": "0x0BDFA9227d71d6251DF500aE5c69ee7072b4447C",
      "txHash": "0x9fe01289be55ba6e06013b1b9b6632d561e218a15bb4f8ec091d5c7bccda152b",
      "kind": "transparent"
    },
    {
      "address": "0xC3056e660158e72dfD109175984D5A2704795551",
      "txHash": "0xed2bdfe37e8e1bf7fc72e052bc8e96b910540ca0cef3cd58e0ecfecfd19d9179",
      "kind": "transparent"
    },
    {
      "address": "0x73F944d8c9b6Ee8F2B5458A95D947Cb587DA536C",
      "txHash": "0x082a366bbeb54476e448ae5f879fa0b1b8a39fe5ce6a8f26b0fdea272b3875e7",
      "kind": "transparent"
    },
    {
      "address": "0xB9b1e2759816a5bF655e2e877A3cfFF74b48c120",
      "txHash": "0x4f3e06458a6ff0577d283968d6c13b0dd863d8ec364da7543f16ac54528ac925",
      "kind": "transparent"
    },
    {
      "address": "0x647d5E48a6F9569daDc761c71a164cDdF2630243",
      "txHash": "0x917a7912463ca51df6d898ccbc33d9d32a00def82b288948a0c0c8342ed221f3",
      "kind": "transparent"
    },
    {
      "address": "0x343060B624Fd17084c36B2a759f5174C1690D7EA",
      "txHash": "0x33e8679a7f99e91eaa27bd5689cd3079836355526087eae3e045b7c77056e32f",
      "kind": "transparent"
    },
    {
      "address": "0xc332144aB53cB8b7D74D3fBd569e76542651101b",
      "txHash": "0x309776a539c87694fb04445d8e0a4580bc62bb6defda54ab2a4feb0ba0318f7f",
      "kind": "transparent"
    }
  ],
  "impls": {
    "164d666d99b05912aebb3cafa9d2f1ae51cd1dd6d6dcf387662f4005ebc568f7": {
      "address": "0x18114fFDbA090E5cb617ef16e774A900bba11Cb7",
      "txHash": "0x1c7a1e937d2dbab150431be63666bf4cac86c606914ee6f6f3f1803f9f88b08c",
      "layout": {
        "solcVersion": "0.8.17",
        "storage": [
          {
            "label": "_initialized",
            "offset": 0,
            "slot": "0",
            "type": "t_uint8",
            "contract": "Initializable",
            "src": "@openzeppelin/contracts-upgradeable/proxy/utils/Initializable.sol:62",
            "retypedFrom": "bool"
          },
          {
            "label": "_initializing",
            "offset": 1,
            "slot": "0",
            "type": "t_bool",
            "contract": "Initializable",
            "src": "@openzeppelin/contracts-upgradeable/proxy/utils/Initializable.sol:67"
          },
          {
            "label": "_HASHED_NAME",
            "offset": 0,
            "slot": "1",
            "type": "t_bytes32",
            "contract": "EIP712Upgradeable",
            "src": "@openzeppelin/contracts-upgradeable/utils/cryptography/EIP712Upgradeable.sol:32"
          },
          {
            "label": "_HASHED_VERSION",
            "offset": 0,
            "slot": "2",
            "type": "t_bytes32",
            "contract": "EIP712Upgradeable",
            "src": "@openzeppelin/contracts-upgradeable/utils/cryptography/EIP712Upgradeable.sol:33"
          },
          {
            "label": "__gap",
            "offset": 0,
            "slot": "3",
            "type": "t_array(t_uint256)50_storage",
            "contract": "EIP712Upgradeable",
            "src": "@openzeppelin/contracts-upgradeable/utils/cryptography/EIP712Upgradeable.sol:120"
          },
          {
            "label": "_status",
            "offset": 0,
            "slot": "53",
            "type": "t_uint256",
            "contract": "ReentrancyGuardUpgradeable",
            "src": "@openzeppelin/contracts-upgradeable/security/ReentrancyGuardUpgradeable.sol:38"
          },
          {
            "label": "__gap",
            "offset": 0,
            "slot": "54",
            "type": "t_array(t_uint256)49_storage",
            "contract": "ReentrancyGuardUpgradeable",
            "src": "@openzeppelin/contracts-upgradeable/security/ReentrancyGuardUpgradeable.sol:80"
          },
          {
            "label": "__gap",
            "offset": 0,
            "slot": "103",
            "type": "t_array(t_uint256)50_storage",
            "contract": "ContextUpgradeable",
            "src": "@openzeppelin/contracts-upgradeable/utils/ContextUpgradeable.sol:36"
          },
          {
            "label": "_owner",
            "offset": 0,
            "slot": "153",
            "type": "t_address",
            "contract": "OwnableUpgradeable",
            "src": "@openzeppelin/contracts-upgradeable/access/OwnableUpgradeable.sol:22"
          },
          {
            "label": "__gap",
            "offset": 0,
            "slot": "154",
            "type": "t_array(t_uint256)49_storage",
            "contract": "OwnableUpgradeable",
            "src": "@openzeppelin/contracts-upgradeable/access/OwnableUpgradeable.sol:94"
          },
          {
            "label": "royaltyRegistry",
            "offset": 0,
            "slot": "203",
            "type": "t_contract(IRoyalty)3289",
            "contract": "Marketplace",
            "src": "contracts/marketplace/Marketplace.sol:19"
          },
          {
            "label": "marketPayee",
            "offset": 0,
            "slot": "204",
            "type": "t_address",
            "contract": "Marketplace",
            "src": "contracts/marketplace/Marketplace.sol:20"
          },
          {
            "label": "marketPercent",
            "offset": 20,
            "slot": "204",
            "type": "t_uint16",
            "contract": "Marketplace",
            "src": "contracts/marketplace/Marketplace.sol:21"
          }
        ],
        "types": {
          "t_address": {
            "label": "address",
            "numberOfBytes": "20"
          },
          "t_array(t_uint256)49_storage": {
            "label": "uint256[49]",
            "numberOfBytes": "1568"
          },
          "t_array(t_uint256)50_storage": {
            "label": "uint256[50]",
            "numberOfBytes": "1600"
          },
          "t_bool": {
            "label": "bool",
            "numberOfBytes": "1"
          },
          "t_bytes32": {
            "label": "bytes32",
            "numberOfBytes": "32"
          },
          "t_contract(IRoyalty)3289": {
            "label": "contract IRoyalty",
            "numberOfBytes": "20"
          },
          "t_uint16": {
            "label": "uint16",
            "numberOfBytes": "2"
          },
          "t_uint256": {
            "label": "uint256",
            "numberOfBytes": "32"
          },
          "t_uint8": {
            "label": "uint8",
            "numberOfBytes": "1"
          }
        }
      }
    },
    "530b77ca1f56e3b7ff71caa98a0324acb2432fdbc988beed08d5a60ac38270e2": {
      "address": "0xc74F427Ca9D10Ba64F16D1117605F03e75bE9eB1",
      "txHash": "0xf9f9ad1a17ab901eda551d67748043c9fafc7ab79504e7dc6c860468d45aec6e",
      "layout": {
        "solcVersion": "0.8.17",
        "storage": [
          {
            "label": "_initialized",
            "offset": 0,
            "slot": "0",
            "type": "t_uint8",
            "contract": "Initializable",
            "src": "@openzeppelin/contracts-upgradeable/proxy/utils/Initializable.sol:62",
            "retypedFrom": "bool"
          },
          {
            "label": "_initializing",
            "offset": 1,
            "slot": "0",
            "type": "t_bool",
            "contract": "Initializable",
            "src": "@openzeppelin/contracts-upgradeable/proxy/utils/Initializable.sol:67"
          },
          {
            "label": "_status",
            "offset": 0,
            "slot": "1",
            "type": "t_uint256",
            "contract": "ReentrancyGuardUpgradeable",
            "src": "@openzeppelin/contracts-upgradeable/security/ReentrancyGuardUpgradeable.sol:38"
          },
          {
            "label": "__gap",
            "offset": 0,
            "slot": "2",
            "type": "t_array(t_uint256)49_storage",
            "contract": "ReentrancyGuardUpgradeable",
            "src": "@openzeppelin/contracts-upgradeable/security/ReentrancyGuardUpgradeable.sol:80"
          },
          {
            "label": "__gap",
            "offset": 0,
            "slot": "51",
            "type": "t_array(t_uint256)50_storage",
            "contract": "ContextUpgradeable",
            "src": "@openzeppelin/contracts-upgradeable/utils/ContextUpgradeable.sol:36"
          },
          {
            "label": "_owner",
            "offset": 0,
            "slot": "101",
            "type": "t_address",
            "contract": "OwnableUpgradeable",
            "src": "@openzeppelin/contracts-upgradeable/access/OwnableUpgradeable.sol:22"
          },
          {
            "label": "__gap",
            "offset": 0,
            "slot": "102",
            "type": "t_array(t_uint256)49_storage",
            "contract": "OwnableUpgradeable",
            "src": "@openzeppelin/contracts-upgradeable/access/OwnableUpgradeable.sol:94"
          },
          {
            "label": "_HASHED_NAME",
            "offset": 0,
            "slot": "151",
            "type": "t_bytes32",
            "contract": "EIP712Upgradeable",
            "src": "@openzeppelin/contracts-upgradeable/utils/cryptography/EIP712Upgradeable.sol:32"
          },
          {
            "label": "_HASHED_VERSION",
            "offset": 0,
            "slot": "152",
            "type": "t_bytes32",
            "contract": "EIP712Upgradeable",
            "src": "@openzeppelin/contracts-upgradeable/utils/cryptography/EIP712Upgradeable.sol:33"
          },
          {
            "label": "__gap",
            "offset": 0,
            "slot": "153",
            "type": "t_array(t_uint256)50_storage",
            "contract": "EIP712Upgradeable",
            "src": "@openzeppelin/contracts-upgradeable/utils/cryptography/EIP712Upgradeable.sol:120"
          },
          {
            "label": "royaltyRegistry",
            "offset": 0,
            "slot": "203",
            "type": "t_contract(IRoyalty)7602",
            "contract": "Offer",
            "src": "contracts/offer/Offer.sol:20"
          },
          {
            "label": "escrow",
            "offset": 0,
            "slot": "204",
            "type": "t_contract(IEscrow)6480",
            "contract": "Offer",
            "src": "contracts/offer/Offer.sol:21"
          },
          {
            "label": "marketPayee",
            "offset": 0,
            "slot": "205",
            "type": "t_address",
            "contract": "Offer",
            "src": "contracts/offer/Offer.sol:22"
          },
          {
            "label": "marketPercent",
            "offset": 20,
            "slot": "205",
            "type": "t_uint16",
            "contract": "Offer",
            "src": "contracts/offer/Offer.sol:23"
          }
        ],
        "types": {
          "t_address": {
            "label": "address",
            "numberOfBytes": "20"
          },
          "t_array(t_uint256)49_storage": {
            "label": "uint256[49]",
            "numberOfBytes": "1568"
          },
          "t_array(t_uint256)50_storage": {
            "label": "uint256[50]",
            "numberOfBytes": "1600"
          },
          "t_bool": {
            "label": "bool",
            "numberOfBytes": "1"
          },
          "t_bytes32": {
            "label": "bytes32",
            "numberOfBytes": "32"
          },
          "t_contract(IEscrow)6480": {
            "label": "contract IEscrow",
            "numberOfBytes": "20"
          },
          "t_contract(IRoyalty)7602": {
            "label": "contract IRoyalty",
            "numberOfBytes": "20"
          },
          "t_uint16": {
            "label": "uint16",
            "numberOfBytes": "2"
          },
          "t_uint256": {
            "label": "uint256",
            "numberOfBytes": "32"
          },
          "t_uint8": {
            "label": "uint8",
            "numberOfBytes": "1"
          }
        }
      }
    },
    "4dfbb4585a77e4c07b5e9371cecc5ec56896718d0adbbc305556945414609e61": {
      "address": "0x4b77D5454EaaFF5139B00834382F66FA1Fb5C5D6",
      "txHash": "0x0c625625b088dcbcff009fe80ba50dc98336c2636774417259437bd0df092c46",
      "layout": {
        "solcVersion": "0.8.17",
        "storage": [
          {
            "label": "_initialized",
            "offset": 0,
            "slot": "0",
            "type": "t_uint8",
            "contract": "Initializable",
            "src": "@openzeppelin/contracts-upgradeable/proxy/utils/Initializable.sol:62",
            "retypedFrom": "bool"
          },
          {
            "label": "_initializing",
            "offset": 1,
            "slot": "0",
            "type": "t_bool",
            "contract": "Initializable",
            "src": "@openzeppelin/contracts-upgradeable/proxy/utils/Initializable.sol:67"
          },
          {
            "label": "__gap",
            "offset": 0,
            "slot": "1",
            "type": "t_array(t_uint256)50_storage",
            "contract": "ContextUpgradeable",
            "src": "@openzeppelin/contracts-upgradeable/utils/ContextUpgradeable.sol:36"
          },
          {
            "label": "_status",
            "offset": 0,
            "slot": "51",
            "type": "t_uint256",
            "contract": "ReentrancyGuardUpgradeable",
            "src": "@openzeppelin/contracts-upgradeable/security/ReentrancyGuardUpgradeable.sol:38"
          },
          {
            "label": "__gap",
            "offset": 0,
            "slot": "52",
            "type": "t_array(t_uint256)49_storage",
            "contract": "ReentrancyGuardUpgradeable",
            "src": "@openzeppelin/contracts-upgradeable/security/ReentrancyGuardUpgradeable.sol:80"
          },
          {
            "label": "_owner",
            "offset": 0,
            "slot": "101",
            "type": "t_address",
            "contract": "OwnableUpgradeable",
            "src": "@openzeppelin/contracts-upgradeable/access/OwnableUpgradeable.sol:22"
          },
          {
            "label": "__gap",
            "offset": 0,
            "slot": "102",
            "type": "t_array(t_uint256)49_storage",
            "contract": "OwnableUpgradeable",
            "src": "@openzeppelin/contracts-upgradeable/access/OwnableUpgradeable.sol:94"
          },
          {
            "label": "_balances",
            "offset": 0,
            "slot": "151",
            "type": "t_mapping(t_address,t_uint256)",
            "contract": "Escrow",
            "src": "contracts/escrow/Escrow.sol:12"
          },
          {
            "label": "_allowances",
            "offset": 0,
            "slot": "152",
            "type": "t_mapping(t_address,t_mapping(t_address,t_uint256))",
            "contract": "Escrow",
            "src": "contracts/escrow/Escrow.sol:14"
          },
          {
            "label": "_trusteds",
            "offset": 0,
            "slot": "153",
            "type": "t_mapping(t_address,t_bool)",
            "contract": "Escrow",
            "src": "contracts/escrow/Escrow.sol:15"
          },
          {
            "label": "__gap",
            "offset": 0,
            "slot": "154",
            "type": "t_array(t_uint256)45_storage",
            "contract": "Escrow",
            "src": "contracts/escrow/Escrow.sol:137"
          }
        ],
        "types": {
          "t_address": {
            "label": "address",
            "numberOfBytes": "20"
          },
          "t_array(t_uint256)45_storage": {
            "label": "uint256[45]",
            "numberOfBytes": "1440"
          },
          "t_array(t_uint256)49_storage": {
            "label": "uint256[49]",
            "numberOfBytes": "1568"
          },
          "t_array(t_uint256)50_storage": {
            "label": "uint256[50]",
            "numberOfBytes": "1600"
          },
          "t_bool": {
            "label": "bool",
            "numberOfBytes": "1"
          },
          "t_mapping(t_address,t_bool)": {
            "label": "mapping(address => bool)",
            "numberOfBytes": "32"
          },
          "t_mapping(t_address,t_mapping(t_address,t_uint256))": {
            "label": "mapping(address => mapping(address => uint256))",
            "numberOfBytes": "32"
          },
          "t_mapping(t_address,t_uint256)": {
            "label": "mapping(address => uint256)",
            "numberOfBytes": "32"
          },
          "t_uint256": {
            "label": "uint256",
            "numberOfBytes": "32"
          },
          "t_uint8": {
            "label": "uint8",
            "numberOfBytes": "1"
          }
        }
      }
    },
    "4118234c3d0925056d558bd7eecaaf8535e56e77cd83fb08f76babbd32e5280e": {
      "address": "0xCC920aF763df0d39B0Fa2E9a635d0E019DD4edf3",
      "txHash": "0xb8c1562b71b4abc4281afd7ce599a90ace88a9285b0a0c08c71b8239d95fab02",
      "layout": {
        "solcVersion": "0.8.17",
        "storage": [
          {
            "label": "_initialized",
            "offset": 0,
            "slot": "0",
            "type": "t_uint8",
            "contract": "Initializable",
            "src": "@openzeppelin/contracts-upgradeable/proxy/utils/Initializable.sol:62",
            "retypedFrom": "bool"
          },
          {
            "label": "_initializing",
            "offset": 1,
            "slot": "0",
            "type": "t_bool",
            "contract": "Initializable",
            "src": "@openzeppelin/contracts-upgradeable/proxy/utils/Initializable.sol:67"
          },
          {
            "label": "__gap",
            "offset": 0,
            "slot": "1",
            "type": "t_array(t_uint256)50_storage",
            "contract": "ContextUpgradeable",
            "src": "@openzeppelin/contracts-upgradeable/utils/ContextUpgradeable.sol:36"
          },
          {
            "label": "_owner",
            "offset": 0,
            "slot": "51",
            "type": "t_address",
            "contract": "OwnableUpgradeable",
            "src": "@openzeppelin/contracts-upgradeable/access/OwnableUpgradeable.sol:22"
          },
          {
            "label": "__gap",
            "offset": 0,
            "slot": "52",
            "type": "t_array(t_uint256)49_storage",
            "contract": "OwnableUpgradeable",
            "src": "@openzeppelin/contracts-upgradeable/access/OwnableUpgradeable.sol:94"
          },
          {
            "label": "collectionPayee",
            "offset": 0,
            "slot": "101",
            "type": "t_mapping(t_address,t_address)",
            "contract": "Royalty",
            "src": "contracts/royalty/Royalty.sol:15"
          },
          {
            "label": "collectionRoyalty",
            "offset": 0,
            "slot": "102",
            "type": "t_mapping(t_address,t_uint16)",
            "contract": "Royalty",
            "src": "contracts/royalty/Royalty.sol:16"
          }
        ],
        "types": {
          "t_address": {
            "label": "address",
            "numberOfBytes": "20"
          },
          "t_array(t_uint256)49_storage": {
            "label": "uint256[49]",
            "numberOfBytes": "1568"
          },
          "t_array(t_uint256)50_storage": {
            "label": "uint256[50]",
            "numberOfBytes": "1600"
          },
          "t_bool": {
            "label": "bool",
            "numberOfBytes": "1"
          },
          "t_mapping(t_address,t_address)": {
            "label": "mapping(address => address)",
            "numberOfBytes": "32"
          },
          "t_mapping(t_address,t_uint16)": {
            "label": "mapping(address => uint16)",
            "numberOfBytes": "32"
          },
          "t_uint16": {
            "label": "uint16",
            "numberOfBytes": "2"
          },
          "t_uint256": {
            "label": "uint256",
            "numberOfBytes": "32"
          },
          "t_uint8": {
            "label": "uint8",
            "numberOfBytes": "1"
          }
        }
      }
    },
    "c1737568a884654ce289f859e3e9788ccdb1fb94a91d966e03c3942df444586a": {
      "address": "0x4c6626A0f4d6ff81b5454bA692b516d61FE612A7",
      "txHash": "0x24d5413a3a17275ef8b60cf0125a021ff67d5b6a1d4c40a80830e979a947a632",
      "layout": {
        "solcVersion": "0.8.17",
        "storage": [
          {
            "label": "_initialized",
            "offset": 0,
            "slot": "0",
            "type": "t_uint8",
            "contract": "Initializable",
            "src": "@openzeppelin/contracts-upgradeable/proxy/utils/Initializable.sol:62",
            "retypedFrom": "bool"
          },
          {
            "label": "_initializing",
            "offset": 1,
            "slot": "0",
            "type": "t_bool",
            "contract": "Initializable",
            "src": "@openzeppelin/contracts-upgradeable/proxy/utils/Initializable.sol:67"
          },
          {
            "label": "_status",
            "offset": 0,
            "slot": "1",
            "type": "t_uint256",
            "contract": "ReentrancyGuardUpgradeable",
            "src": "@openzeppelin/contracts-upgradeable/security/ReentrancyGuardUpgradeable.sol:38"
          },
          {
            "label": "__gap",
            "offset": 0,
            "slot": "2",
            "type": "t_array(t_uint256)49_storage",
            "contract": "ReentrancyGuardUpgradeable",
            "src": "@openzeppelin/contracts-upgradeable/security/ReentrancyGuardUpgradeable.sol:80"
          },
          {
            "label": "__gap",
            "offset": 0,
            "slot": "51",
            "type": "t_array(t_uint256)50_storage",
            "contract": "ContextUpgradeable",
            "src": "@openzeppelin/contracts-upgradeable/utils/ContextUpgradeable.sol:36"
          },
          {
            "label": "_owner",
            "offset": 0,
            "slot": "101",
            "type": "t_address",
            "contract": "OwnableUpgradeable",
            "src": "@openzeppelin/contracts-upgradeable/access/OwnableUpgradeable.sol:22"
          },
          {
            "label": "__gap",
            "offset": 0,
            "slot": "102",
            "type": "t_array(t_uint256)49_storage",
            "contract": "OwnableUpgradeable",
            "src": "@openzeppelin/contracts-upgradeable/access/OwnableUpgradeable.sol:94"
          },
          {
            "label": "_HASHED_NAME",
            "offset": 0,
            "slot": "151",
            "type": "t_bytes32",
            "contract": "EIP712Upgradeable",
            "src": "@openzeppelin/contracts-upgradeable/utils/cryptography/EIP712Upgradeable.sol:32"
          },
          {
            "label": "_HASHED_VERSION",
            "offset": 0,
            "slot": "152",
            "type": "t_bytes32",
            "contract": "EIP712Upgradeable",
            "src": "@openzeppelin/contracts-upgradeable/utils/cryptography/EIP712Upgradeable.sol:33"
          },
          {
            "label": "__gap",
            "offset": 0,
            "slot": "153",
            "type": "t_array(t_uint256)50_storage",
            "contract": "EIP712Upgradeable",
            "src": "@openzeppelin/contracts-upgradeable/utils/cryptography/EIP712Upgradeable.sol:120"
          },
          {
            "label": "royaltyRegistry",
            "offset": 0,
            "slot": "203",
            "type": "t_contract(IRoyalty)3358",
            "contract": "Offer",
            "src": "contracts/offer/Offer.sol:20"
          },
          {
            "label": "escrow",
            "offset": 0,
            "slot": "204",
            "type": "t_contract(IEscrow)2773",
            "contract": "Offer",
            "src": "contracts/offer/Offer.sol:21"
          },
          {
            "label": "marketPayee",
            "offset": 0,
            "slot": "205",
            "type": "t_address",
            "contract": "Offer",
            "src": "contracts/offer/Offer.sol:22"
          },
          {
            "label": "marketPercent",
            "offset": 20,
            "slot": "205",
            "type": "t_uint16",
            "contract": "Offer",
            "src": "contracts/offer/Offer.sol:23"
          }
        ],
        "types": {
          "t_address": {
            "label": "address",
            "numberOfBytes": "20"
          },
          "t_array(t_uint256)49_storage": {
            "label": "uint256[49]",
            "numberOfBytes": "1568"
          },
          "t_array(t_uint256)50_storage": {
            "label": "uint256[50]",
            "numberOfBytes": "1600"
          },
          "t_bool": {
            "label": "bool",
            "numberOfBytes": "1"
          },
          "t_bytes32": {
            "label": "bytes32",
            "numberOfBytes": "32"
          },
          "t_contract(IEscrow)2773": {
            "label": "contract IEscrow",
            "numberOfBytes": "20"
          },
          "t_contract(IRoyalty)3358": {
            "label": "contract IRoyalty",
            "numberOfBytes": "20"
          },
          "t_uint16": {
            "label": "uint16",
            "numberOfBytes": "2"
          },
          "t_uint256": {
            "label": "uint256",
            "numberOfBytes": "32"
          },
          "t_uint8": {
            "label": "uint8",
            "numberOfBytes": "1"
          }
        }
      }
    },
    "1df835f83c5de2c838986e58a67357eed88c71b104b436a3384dc2057062f039": {
      "address": "0x90b2C7dD649edEaa80C6Cd212710777F248d8a8e",
      "txHash": "0x2d774d43f6d80c9d0379491bbc22df3b07ef272bd697619a28d62581faec6ffa",
      "layout": {
        "solcVersion": "0.8.17",
        "storage": [
          {
            "label": "_initialized",
            "offset": 0,
            "slot": "0",
            "type": "t_uint8",
            "contract": "Initializable",
            "src": "@openzeppelin/contracts-upgradeable/proxy/utils/Initializable.sol:62",
            "retypedFrom": "bool"
          },
          {
            "label": "_initializing",
            "offset": 1,
            "slot": "0",
            "type": "t_bool",
            "contract": "Initializable",
            "src": "@openzeppelin/contracts-upgradeable/proxy/utils/Initializable.sol:67"
          },
          {
            "label": "__gap",
            "offset": 0,
            "slot": "1",
            "type": "t_array(t_uint256)50_storage",
            "contract": "ContextUpgradeable",
            "src": "@openzeppelin/contracts-upgradeable/utils/ContextUpgradeable.sol:36"
          },
          {
            "label": "_owner",
            "offset": 0,
            "slot": "51",
            "type": "t_address",
            "contract": "OwnableUpgradeable",
            "src": "@openzeppelin/contracts-upgradeable/access/OwnableUpgradeable.sol:22"
          },
          {
            "label": "__gap",
            "offset": 0,
            "slot": "52",
            "type": "t_array(t_uint256)49_storage",
            "contract": "OwnableUpgradeable",
            "src": "@openzeppelin/contracts-upgradeable/access/OwnableUpgradeable.sol:94"
          },
          {
            "label": "rewardToken",
            "offset": 0,
            "slot": "101",
            "type": "t_contract(IERC20)1016",
            "contract": "Reward",
            "src": "contracts/reward/Reward.sol:14"
          },
          {
            "label": "tiers",
            "offset": 0,
            "slot": "102",
            "type": "t_mapping(t_uint256,t_struct(Tier)1026_storage)",
            "contract": "Reward",
            "src": "contracts/reward/Reward.sol:15"
          },
          {
            "label": "collectionToPayee",
            "offset": 0,
            "slot": "103",
            "type": "t_mapping(t_address,t_address)",
            "contract": "Reward",
            "src": "contracts/reward/Reward.sol:16"
          },
          {
            "label": "collectionToTier",
            "offset": 0,
            "slot": "104",
            "type": "t_mapping(t_address,t_uint256)",
            "contract": "Reward",
            "src": "contracts/reward/Reward.sol:17"
          },
          {
            "label": "balanceOf",
            "offset": 0,
            "slot": "105",
            "type": "t_mapping(t_address,t_uint256)",
            "contract": "Reward",
            "src": "contracts/reward/Reward.sol:18"
          },
          {
            "label": "trusted",
            "offset": 0,
            "slot": "106",
            "type": "t_mapping(t_address,t_bool)",
            "contract": "Reward",
            "src": "contracts/reward/Reward.sol:19"
          }
        ],
        "types": {
          "t_address": {
            "label": "address",
            "numberOfBytes": "20"
          },
          "t_array(t_uint256)49_storage": {
            "label": "uint256[49]",
            "numberOfBytes": "1568"
          },
          "t_array(t_uint256)50_storage": {
            "label": "uint256[50]",
            "numberOfBytes": "1600"
          },
          "t_bool": {
            "label": "bool",
            "numberOfBytes": "1"
          },
          "t_contract(IERC20)1016": {
            "label": "contract IERC20",
            "numberOfBytes": "20"
          },
          "t_mapping(t_address,t_address)": {
            "label": "mapping(address => address)",
            "numberOfBytes": "32"
          },
          "t_mapping(t_address,t_bool)": {
            "label": "mapping(address => bool)",
            "numberOfBytes": "32"
          },
          "t_mapping(t_address,t_uint256)": {
            "label": "mapping(address => uint256)",
            "numberOfBytes": "32"
          },
          "t_mapping(t_uint256,t_struct(Tier)1026_storage)": {
            "label": "mapping(uint256 => struct IReward.Tier)",
            "numberOfBytes": "32"
          },
          "t_struct(Tier)1026_storage": {
            "label": "struct IReward.Tier",
            "members": [
              {
                "label": "seller",
                "type": "t_uint256",
                "offset": 0,
                "slot": "0"
              },
              {
                "label": "buyer",
                "type": "t_uint256",
                "offset": 0,
                "slot": "1"
              },
              {
                "label": "collectionOwner",
                "type": "t_uint256",
                "offset": 0,
                "slot": "2"
              }
            ],
            "numberOfBytes": "96"
          },
          "t_uint256": {
            "label": "uint256",
            "numberOfBytes": "32"
          },
          "t_uint8": {
            "label": "uint8",
            "numberOfBytes": "1"
          }
        }
      }
    },
    "0f4b545c5c818800e645881bba2717dc369d2ed3808c64830896a89725ee25c7": {
      "address": "0x3e5f70101A5E06ce6E25D6bf1a8BCfB734867f98",
      "txHash": "0x56420692bd54cb313f8b34f141d011b17df19263836d3fd4cb94811a0840856b",
      "layout": {
        "solcVersion": "0.8.17",
        "storage": [
          {
            "label": "_initialized",
            "offset": 0,
            "slot": "0",
            "type": "t_uint8",
            "contract": "Initializable",
            "src": "@openzeppelin/contracts-upgradeable/proxy/utils/Initializable.sol:62",
            "retypedFrom": "bool"
          },
          {
            "label": "_initializing",
            "offset": 1,
            "slot": "0",
            "type": "t_bool",
            "contract": "Initializable",
            "src": "@openzeppelin/contracts-upgradeable/proxy/utils/Initializable.sol:67"
          },
          {
            "label": "_HASHED_NAME",
            "offset": 0,
            "slot": "1",
            "type": "t_bytes32",
            "contract": "EIP712Upgradeable",
            "src": "@openzeppelin/contracts-upgradeable/utils/cryptography/EIP712Upgradeable.sol:32"
          },
          {
            "label": "_HASHED_VERSION",
            "offset": 0,
            "slot": "2",
            "type": "t_bytes32",
            "contract": "EIP712Upgradeable",
            "src": "@openzeppelin/contracts-upgradeable/utils/cryptography/EIP712Upgradeable.sol:33"
          },
          {
            "label": "__gap",
            "offset": 0,
            "slot": "3",
            "type": "t_array(t_uint256)50_storage",
            "contract": "EIP712Upgradeable",
            "src": "@openzeppelin/contracts-upgradeable/utils/cryptography/EIP712Upgradeable.sol:120"
          },
          {
            "label": "_status",
            "offset": 0,
            "slot": "53",
            "type": "t_uint256",
            "contract": "ReentrancyGuardUpgradeable",
            "src": "@openzeppelin/contracts-upgradeable/security/ReentrancyGuardUpgradeable.sol:38"
          },
          {
            "label": "__gap",
            "offset": 0,
            "slot": "54",
            "type": "t_array(t_uint256)49_storage",
            "contract": "ReentrancyGuardUpgradeable",
            "src": "@openzeppelin/contracts-upgradeable/security/ReentrancyGuardUpgradeable.sol:80"
          },
          {
            "label": "__gap",
            "offset": 0,
            "slot": "103",
            "type": "t_array(t_uint256)50_storage",
            "contract": "ContextUpgradeable",
            "src": "@openzeppelin/contracts-upgradeable/utils/ContextUpgradeable.sol:36"
          },
          {
            "label": "_owner",
            "offset": 0,
            "slot": "153",
            "type": "t_address",
            "contract": "OwnableUpgradeable",
            "src": "@openzeppelin/contracts-upgradeable/access/OwnableUpgradeable.sol:22"
          },
          {
            "label": "__gap",
            "offset": 0,
            "slot": "154",
            "type": "t_array(t_uint256)49_storage",
            "contract": "OwnableUpgradeable",
            "src": "@openzeppelin/contracts-upgradeable/access/OwnableUpgradeable.sol:94"
          },
          {
            "label": "royaltyRegistry",
            "offset": 0,
            "slot": "203",
            "type": "t_contract(IRoyalty)4202",
            "contract": "Marketplace",
            "src": "contracts/marketplace/Marketplace.sol:20"
          },
          {
            "label": "marketPayee",
            "offset": 0,
            "slot": "204",
            "type": "t_address",
            "contract": "Marketplace",
            "src": "contracts/marketplace/Marketplace.sol:21"
          },
          {
            "label": "marketPercent",
            "offset": 20,
            "slot": "204",
            "type": "t_uint16",
            "contract": "Marketplace",
            "src": "contracts/marketplace/Marketplace.sol:22"
          },
          {
            "label": "reward",
            "offset": 0,
            "slot": "205",
            "type": "t_contract(IReward)4168",
            "contract": "Marketplace",
            "src": "contracts/marketplace/Marketplace.sol:23"
          }
        ],
        "types": {
          "t_address": {
            "label": "address",
            "numberOfBytes": "20"
          },
          "t_array(t_uint256)49_storage": {
            "label": "uint256[49]",
            "numberOfBytes": "1568"
          },
          "t_array(t_uint256)50_storage": {
            "label": "uint256[50]",
            "numberOfBytes": "1600"
          },
          "t_bool": {
            "label": "bool",
            "numberOfBytes": "1"
          },
          "t_bytes32": {
            "label": "bytes32",
            "numberOfBytes": "32"
          },
          "t_contract(IReward)4168": {
            "label": "contract IReward",
            "numberOfBytes": "20"
          },
          "t_contract(IRoyalty)4202": {
            "label": "contract IRoyalty",
            "numberOfBytes": "20"
          },
          "t_uint16": {
            "label": "uint16",
            "numberOfBytes": "2"
          },
          "t_uint256": {
            "label": "uint256",
            "numberOfBytes": "32"
          },
          "t_uint8": {
            "label": "uint8",
            "numberOfBytes": "1"
          }
        }
      }
    },
    "41fddfae16b2cde56a9fd196b63eb3d0fb141feaa6dd27d9ae6b89257fd74c95": {
      "address": "0xa6bBBA7D3887864eAd317BED45d6F0bBE36a0F0b",
      "txHash": "0x9385809d59f3badb570eb952348380a4c11061d51df465b7c64c4500bdfea35a",
      "layout": {
        "solcVersion": "0.8.17",
        "storage": [
          {
            "label": "_initialized",
            "offset": 0,
            "slot": "0",
            "type": "t_uint8",
            "contract": "Initializable",
            "src": "@openzeppelin/contracts-upgradeable/proxy/utils/Initializable.sol:62",
            "retypedFrom": "bool"
          },
          {
            "label": "_initializing",
            "offset": 1,
            "slot": "0",
            "type": "t_bool",
            "contract": "Initializable",
            "src": "@openzeppelin/contracts-upgradeable/proxy/utils/Initializable.sol:67"
          },
          {
            "label": "_status",
            "offset": 0,
            "slot": "1",
            "type": "t_uint256",
            "contract": "ReentrancyGuardUpgradeable",
            "src": "@openzeppelin/contracts-upgradeable/security/ReentrancyGuardUpgradeable.sol:38"
          },
          {
            "label": "__gap",
            "offset": 0,
            "slot": "2",
            "type": "t_array(t_uint256)49_storage",
            "contract": "ReentrancyGuardUpgradeable",
            "src": "@openzeppelin/contracts-upgradeable/security/ReentrancyGuardUpgradeable.sol:80"
          },
          {
            "label": "__gap",
            "offset": 0,
            "slot": "51",
            "type": "t_array(t_uint256)50_storage",
            "contract": "ContextUpgradeable",
            "src": "@openzeppelin/contracts-upgradeable/utils/ContextUpgradeable.sol:36"
          },
          {
            "label": "_owner",
            "offset": 0,
            "slot": "101",
            "type": "t_address",
            "contract": "OwnableUpgradeable",
            "src": "@openzeppelin/contracts-upgradeable/access/OwnableUpgradeable.sol:22"
          },
          {
            "label": "__gap",
            "offset": 0,
            "slot": "102",
            "type": "t_array(t_uint256)49_storage",
            "contract": "OwnableUpgradeable",
            "src": "@openzeppelin/contracts-upgradeable/access/OwnableUpgradeable.sol:94"
          },
          {
            "label": "_HASHED_NAME",
            "offset": 0,
            "slot": "151",
            "type": "t_bytes32",
            "contract": "EIP712Upgradeable",
            "src": "@openzeppelin/contracts-upgradeable/utils/cryptography/EIP712Upgradeable.sol:32"
          },
          {
            "label": "_HASHED_VERSION",
            "offset": 0,
            "slot": "152",
            "type": "t_bytes32",
            "contract": "EIP712Upgradeable",
            "src": "@openzeppelin/contracts-upgradeable/utils/cryptography/EIP712Upgradeable.sol:33"
          },
          {
            "label": "__gap",
            "offset": 0,
            "slot": "153",
            "type": "t_array(t_uint256)50_storage",
            "contract": "EIP712Upgradeable",
            "src": "@openzeppelin/contracts-upgradeable/utils/cryptography/EIP712Upgradeable.sol:120"
          },
          {
            "label": "royaltyRegistry",
            "offset": 0,
            "slot": "203",
            "type": "t_contract(IRoyalty)4202",
            "contract": "Offer",
            "src": "contracts/offer/Offer.sol:21"
          },
          {
            "label": "escrow",
            "offset": 0,
            "slot": "204",
            "type": "t_contract(IEscrow)2851",
            "contract": "Offer",
            "src": "contracts/offer/Offer.sol:22"
          },
          {
            "label": "marketPayee",
            "offset": 0,
            "slot": "205",
            "type": "t_address",
            "contract": "Offer",
            "src": "contracts/offer/Offer.sol:23"
          },
          {
            "label": "marketPercent",
            "offset": 20,
            "slot": "205",
            "type": "t_uint16",
            "contract": "Offer",
            "src": "contracts/offer/Offer.sol:24"
          },
          {
            "label": "reward",
            "offset": 0,
            "slot": "206",
            "type": "t_contract(IReward)4168",
            "contract": "Offer",
            "src": "contracts/offer/Offer.sol:25"
          }
        ],
        "types": {
          "t_address": {
            "label": "address",
            "numberOfBytes": "20"
          },
          "t_array(t_uint256)49_storage": {
            "label": "uint256[49]",
            "numberOfBytes": "1568"
          },
          "t_array(t_uint256)50_storage": {
            "label": "uint256[50]",
            "numberOfBytes": "1600"
          },
          "t_bool": {
            "label": "bool",
            "numberOfBytes": "1"
          },
          "t_bytes32": {
            "label": "bytes32",
            "numberOfBytes": "32"
          },
          "t_contract(IEscrow)2851": {
            "label": "contract IEscrow",
            "numberOfBytes": "20"
          },
          "t_contract(IReward)4168": {
            "label": "contract IReward",
            "numberOfBytes": "20"
          },
          "t_contract(IRoyalty)4202": {
            "label": "contract IRoyalty",
            "numberOfBytes": "20"
          },
          "t_uint16": {
            "label": "uint16",
            "numberOfBytes": "2"
          },
          "t_uint256": {
            "label": "uint256",
            "numberOfBytes": "32"
          },
          "t_uint8": {
            "label": "uint8",
            "numberOfBytes": "1"
          }
        }
      }
    },
    "05e0357d08f9e7fcd8ede947d09e776c5f713cd57389f6b9a1c0610657849d6b": {
      "address": "0x3a99c8E50148b9D9a6c8D677d2215D86AE6119Dc",
      "txHash": "0x2d1b02789f9b848a7cd30bfe5dce59a341b44928715f2521b66b66004f718dd8",
      "layout": {
        "solcVersion": "0.8.17",
        "storage": [
          {
            "label": "_initialized",
            "offset": 0,
            "slot": "0",
            "type": "t_uint8",
            "contract": "Initializable",
            "src": "@openzeppelin/contracts-upgradeable/proxy/utils/Initializable.sol:62",
            "retypedFrom": "bool"
          },
          {
            "label": "_initializing",
            "offset": 1,
            "slot": "0",
            "type": "t_bool",
            "contract": "Initializable",
            "src": "@openzeppelin/contracts-upgradeable/proxy/utils/Initializable.sol:67"
          },
          {
            "label": "__gap",
            "offset": 0,
            "slot": "1",
            "type": "t_array(t_uint256)50_storage",
            "contract": "ContextUpgradeable",
            "src": "@openzeppelin/contracts-upgradeable/utils/ContextUpgradeable.sol:36"
          },
          {
            "label": "_owner",
            "offset": 0,
            "slot": "51",
            "type": "t_address",
            "contract": "OwnableUpgradeable",
            "src": "@openzeppelin/contracts-upgradeable/access/OwnableUpgradeable.sol:22"
          },
          {
            "label": "__gap",
            "offset": 0,
            "slot": "52",
            "type": "t_array(t_uint256)49_storage",
            "contract": "OwnableUpgradeable",
            "src": "@openzeppelin/contracts-upgradeable/access/OwnableUpgradeable.sol:94"
          },
          {
            "label": "rewardToken",
            "offset": 0,
            "slot": "101",
            "type": "t_contract(IERC20)2640",
            "contract": "Reward",
            "src": "contracts/reward/Reward.sol:14"
          },
          {
            "label": "tiers",
            "offset": 0,
            "slot": "102",
            "type": "t_mapping(t_uint256,t_struct(Tier)4062_storage)",
            "contract": "Reward",
            "src": "contracts/reward/Reward.sol:15"
          },
          {
            "label": "collectionToPayee",
            "offset": 0,
            "slot": "103",
            "type": "t_mapping(t_address,t_address)",
            "contract": "Reward",
            "src": "contracts/reward/Reward.sol:16"
          },
          {
            "label": "collectionToTier",
            "offset": 0,
            "slot": "104",
            "type": "t_mapping(t_address,t_uint256)",
            "contract": "Reward",
            "src": "contracts/reward/Reward.sol:17"
          },
          {
            "label": "balanceOf",
            "offset": 0,
            "slot": "105",
            "type": "t_mapping(t_address,t_uint256)",
            "contract": "Reward",
            "src": "contracts/reward/Reward.sol:18"
          },
          {
            "label": "trusted",
            "offset": 0,
            "slot": "106",
            "type": "t_mapping(t_address,t_bool)",
            "contract": "Reward",
            "src": "contracts/reward/Reward.sol:19"
          },
          {
            "label": "totalBalance",
            "offset": 0,
            "slot": "107",
            "type": "t_uint256",
            "contract": "Reward",
            "src": "contracts/reward/Reward.sol:20"
          }
        ],
        "types": {
          "t_address": {
            "label": "address",
            "numberOfBytes": "20"
          },
          "t_array(t_uint256)49_storage": {
            "label": "uint256[49]",
            "numberOfBytes": "1568"
          },
          "t_array(t_uint256)50_storage": {
            "label": "uint256[50]",
            "numberOfBytes": "1600"
          },
          "t_bool": {
            "label": "bool",
            "numberOfBytes": "1"
          },
          "t_contract(IERC20)2640": {
            "label": "contract IERC20",
            "numberOfBytes": "20"
          },
          "t_mapping(t_address,t_address)": {
            "label": "mapping(address => address)",
            "numberOfBytes": "32"
          },
          "t_mapping(t_address,t_bool)": {
            "label": "mapping(address => bool)",
            "numberOfBytes": "32"
          },
          "t_mapping(t_address,t_uint256)": {
            "label": "mapping(address => uint256)",
            "numberOfBytes": "32"
          },
          "t_mapping(t_uint256,t_struct(Tier)4062_storage)": {
            "label": "mapping(uint256 => struct IReward.Tier)",
            "numberOfBytes": "32"
          },
          "t_struct(Tier)4062_storage": {
            "label": "struct IReward.Tier",
            "members": [
              {
                "label": "seller",
                "type": "t_uint256",
                "offset": 0,
                "slot": "0"
              },
              {
                "label": "buyer",
                "type": "t_uint256",
                "offset": 0,
                "slot": "1"
              },
              {
                "label": "collectionOwner",
                "type": "t_uint256",
                "offset": 0,
                "slot": "2"
              }
            ],
            "numberOfBytes": "96"
          },
          "t_uint256": {
            "label": "uint256",
            "numberOfBytes": "32"
          },
          "t_uint8": {
            "label": "uint8",
            "numberOfBytes": "1"
          }
        }
      }
    }
  }
}
